{
	"results":[
		{
			"id": 1,
			"description": "Departamentos frente al parque, habitaciones amplias",
			"photo": "http://o.homedsgn.com/wp-content/uploads/2013/02/a-house-19-800x548.jpg",
			"district": "Cayma",
			"city": "Arequipa",
			"price": 5000000,
			"area": 300,
			"nrooms": 4,
			"nbaths": 2
		},
		{
			"id": 2,
			"description": "Casa de playa frente al mar",
			"photo": "http://o.homedsgn.com/wp-content/uploads/2013/02/a-house-19-800x548.jpg",
			"district": "Camana",
			"city": "Arequipa",
			"price": 340000,
			"area": 150,
			"nrooms": 3,
			"nbaths": 1
		},
		{
			"id": 3,
			"description": "Casa frente a avenida",
			"photo": "http://o.homedsgn.com/wp-content/uploads/2013/02/a-house-19-800x548.jpg",
			"district": "Cayma",
			"city": "Arequipa",
			"price": 120000,
			"area": 350,
			"nrooms": 5,
			"nbaths": 3
		}
	],
	"next": "demos/buildings.json"
}