{
	"id": 1,
	"title": "Lavanderia",
	"imgSrc": "demos/view1.jpg",
	"level": 3,
	"adjViews": [{
		"id": 2,
		"xDir": {
			"fromCurrent": 178,
			"fromTarget": 94
		},
		"title": "Patio",
		"imgSrc": "demos/view2.jpg"
	}]
}
