{
	"id": 2,
	"title": "Patio",
	"imgSrc": "demos/view2.jpg",
	"level": 1,
	"adjViews": [{
		"id": 1,
		"xDir": {
			"fromCurrent": 94,
			"fromTarget": 178
		},
		"title": "Lavanderia",
		"imgSrc": "demos/view1.jpg"
	}]
}