{
	"id":"R0010356",
	"title":"Espacio X",
	"imgSrc":"demos/R0010356.jpg",
	"markers":[],
	"adjViews":[
		{
			"id":"R0010377",
			"title":"Expacio Y",
			"imgSrc":"demos/R0010377.jpg",
			"xDir":{
				"fromCurrent":180.5,
				"fromTarget":189.30000000000018
			}
		},
		{
			"id":"R0010357",
			"title":"Expacio Y",
			"imgSrc":"demos/R0010357.jpg",
			"xDir":{
				"fromCurrent":29.200000000000273,
				"fromTarget":215.89999999999986
			}
		},
		{
			"id":"R0010367",
			"title":"Expacio Y",
			"imgSrc":"demos/R0010367.jpg",
			"xDir":{
				"fromCurrent":1.8000000000004093,
				"fromTarget":178.89999999999986
			}
		}
	]
}